%YAML 1.1
%TAG !u! tag:unity3d.com,2011:
--- !u!1045 &1
EditorBuildSettings:
  m_ObjectHideFlags: 0
  serializedVersion: 2
  m_Scenes:
  - enabled: 1
    path: Assets/Scenes/SampleScene.unity
    guid: d3b04a9a8ed475246a08fa3bb573bb41
  m_configObjects: {}
